…
# Cached catalogue

For convenience, a cached version of the catalogue (last updated in August 2016) is included in the package and can be loaded using the following command:


```r
data('stations')

stations
#> # A tibble: 6,569 x 17
#>    UK.AIR.ID EU.Site.ID EMEP.Site.ID
#>        <chr>      <chr>        <chr>
#> 1   UKA15910       <NA>         <NA>
#> 2   UKA15956       <NA>         <NA>
#> 3   UKA16663       <NA>         <NA>
#> 4   UKA16097       <NA>         <NA>
#> 5   UKA12536       <NA>         <NA>
#> 6   UKA12949       <NA>         <NA>
#> 7   UKA12399       <NA>         <NA>
#> 8   UKA13340       <NA>         <NA>
#> 9   UKA13341       <NA>         <NA>
#> 10  UKA15369       <NA>         <NA>
#> # ... with 6,559 more rows, and 14 more variables: Site.Name <chr>,
#> #   Environment.Type <chr>, Zone <chr>, Start.Date <time>,
#> #   End.Date <time>, Latitude <dbl>, Longitude <dbl>, Altitude..m. <dbl>,
#> #   Networks <chr>, AURN.Pollutants.Measured <chr>,
#> #   Site.Description <chr>, Easting <dbl>, Northing <dbl>, SiteID <chr>
```
…
