rdefra: Interact with the UK AIR Pollution Database from DEFRA • rdefra
…
The above box plots show that the highest concentrations usually occurr during April/May and that these vary year-by-year.

Cached catalogue

For convenience, a cached version of the catalogue (last updated in August 2016) is included in the package and can be loaded using the following command:

data("stations")

stations
#> # A tibble: 6,569 x 17
#>    UK.AIR.ID EU.Site.ID EMEP.Site.ID Site.Name Environment.Type Zone 
#>    <chr>     <chr>      <chr>        <chr>     <chr>            <chr>
#>  1 UKA15910  <NA>       <NA>         " SH15, … <NA>             Sout…
#>  2 UKA15956  <NA>       <NA>         " SH15, … <NA>             Sout…
#>  3 UKA16663  <NA>       <NA>         " SH15, … <NA>             Sout…
#>  4 UKA16097  <NA>       <NA>         10 High … <NA>             Sout…
#>  5 UKA12536  <NA>       <NA>         ABBOTS L… <NA>             Grea…
#>  6 UKA12949  <NA>       <NA>         ABERBARG… <NA>             Sout…
#>  7 UKA12399  <NA>       <NA>         ABERCARN… <NA>             Sout…
#>  8 UKA13340  <NA>       <NA>         ABERDARE… <NA>             Sout…
#>  9 UKA13341  <NA>       <NA>         ABERDARE… <NA>             Sout…
#> 10 UKA15369  <NA>       <NA>         ABERDARE… <NA>             Sout…
#> # ... with 6,559 more rows, and 11 more variables: Start.Date <dttm>,
#> #   End.Date <dttm>, Latitude <dbl>, Longitude <dbl>, Altitude..m. <dbl>,
#> #   Networks <chr>, AURN.Pollutants.Measured <chr>,
#> #   Site.Description <chr>, Easting <dbl>, Northing <dbl>, SiteID <chr>
…
